{
    "ints": [
        "ftagTruthOriginLabel",
        "ftagTruthTypeLabel",
        "ftagTruthSourceLabel",
        "ftagTruthVertexIndex",
        "SV1VertexIndex",
        "JFVertexIndex"
    ],
    "uchars": [
        "numberOfInnermostPixelLayerHits",
        "numberOfNextToInnermostPixelLayerHits",
        "numberOfInnermostPixelLayerSharedHits",
        "numberOfInnermostPixelLayerSplitHits",
        "numberOfPixelHits",
        "numberOfPixelSharedHits",
        "numberOfPixelSplitHits",
        "numberOfSCTHits",
        "numberOfSCTSharedHits"
    ],
    "floats": [
        "qOverP",
        "muon_qOverPratio",
        "muon_momentumBalanceSignificance",
        "muon_scatteringNeighbourSignificance"
    ],
    "customs": [
        "pt",
        "deta",
        "qOverPUncertainty"
    ],
    "half_precision_customs": [
        "d0",
        "z0SinTheta",
        "dphi",
        "d0Uncertainty",
        "z0SinThetaUncertainty",
        "phiUncertainty",
        "thetaUncertainty",
        "lifetimeSignedD0Significance",
        "lifetimeSignedZ0SinThetaSignificance"
    ],
    "chars": [
        "leptonID",
        "muon_quality"
    ]
}
