{
    "jet_collection": "AntiKt4EMPFlowJets",
    "calibration": {"file": "pflow-calibration.json"},
    "selection": {"file": "pflow-selection.json"},
    "vertex_collection": "PrimaryVertices",
    "truth_vertex_collection": "TruthPrimaryVertices",
    "variables": {
        "file": "pflow-variables-all.json",
        "default_mapping": {
            "file": "default-mapping.json"
        }
    },
    "truths" : [
        {"file": "overlap-leptons-TRUTH3.json"},
        {
            "association": {
                "file": "baseline-truth-kinematics.json",
                "particles": "promptLepton"
            },
            "decorate_summary": true
        }
    ],
    "decorate": {
        "jet_aug": false,
        "btag_jes": true,
        "soft_muon": false,
        "track_sv_info": true,
        "lepton_decay_label": true
    },
    "btagging_link": "btaggingLink"
}
