{
    "dumper": {
        "jet_collection": "AntiKt4EMPFlowJets",
        "calibration": {
            "file": "fragments/pflow-calibration.json"
        },
        "selection": {
            "file": "fragments/pflow-selection.json"
        },
        "vertex_collection": "PrimaryVertices",
        "variables": {
            "btagging": {
                "floats": [
                    "SV1_masssvx",
                    "GN2v01_pb",
                    "GN2v01_pc",
                    "GN2v01_pu",
                    "GN2v01_ptau",
                    "GN2v01SimpleFlip_pb",
                    "GN2v01SimpleFlip_pc",
                    "GN2v01SimpleFlip_pu",
                    "GN2v01SimpleFlip_ptau"
               ]
            },
            "jet" : {
                "ints" : [
                    "HadronConeExclTruthLabelID",
                    "n_truth_promptLepton"
                ],
                "floats": [
                    "pt",
                    "eta",
                    "phi"
                ]
            },
            "default_mapping": {
                "file": "fragments/default-mapping.json"
            }
        },
        "tracks": [
            {
                "n_to_save": 40,
                "selection": {
                    "file": "fragments/r22default-track-cuts.json"
                },
                "sort_order": "d0_significance",
                "btagging_link": "btaggingLink",
                "input_name": "BTagTrackToJetAssociator",
                "output_name": "tracks",
                "variables": {
                    "file": "fragments/pflow-track-variables-all.json"
                },
                "ip_prefix": "btagIp_",
                "edm_names": {
                    "ftagTruthOriginLabel": "ftagTruthOriginLabelTDD",
                    "ftagTruthVertexIndex": "ftagTruthVertexIndexTDD",
                    "ftagTruthTypeLabel": "ftagTruthTypeLabelTDD",
                    "ftagTruthSourceLabel" : "ftagTruthSourceLabelTDD"
                }
            }
        ],
        "truths": [
            {
                "file": "fragments/overlap-leptons-TRUTH3.json"
            },
            {
                "association": {
                    "file": "fragments/baseline-truth-kinematics.json",
                    "particles": "promptLepton"
                },
                "decorate_summary": true
            }
        ],

        "decorate": {
            "jet_aug": false,
            "btag_jes": false,
            "soft_muon": false,
            "track_sv_info": true,
            "lepton_decay_label": true
        },
        "btagging_link": "btaggingLink"
    },
    "ca_blocks": [
            {"block": "TruthLabelling", "suffix": "TDD"}
    ],
    "flip_configs": [
        "STANDARD",
        "SIMPLE_FLIP"
    ],
    "track_systematics": [],
    "jet_systematics": [],
    "jet_sigma": 1.0,
    "track_container": "InDetTrackParticles",
    "decorate_track_truth": false,
    "ip_method": "rich",
    "add_fold_hash": false
}
