# Generator weights samples used for high-pt extrapolation

###################
#Dijet with pythia shower weights
###################
#mc23

mc23_13p6TeV.801165.Py8EG_A14NNPDF23LO_jj_JZ0.deriv.DAOD_FTAG1.e8514_s4162_r14622_p5981
mc23_13p6TeV.801165.Py8EG_A14NNPDF23LO_jj_JZ0.deriv.DAOD_FTAG1.e8514_s4159_r14799_p5981
mc23_13p6TeV.801166.Py8EG_A14NNPDF23LO_jj_JZ1.deriv.DAOD_FTAG1.e8514_s4162_r14622_p5981
mc23_13p6TeV.801166.Py8EG_A14NNPDF23LO_jj_JZ1.deriv.DAOD_FTAG1.e8514_s4159_r14799_p5981
mc23_13p6TeV.801167.Py8EG_A14NNPDF23LO_jj_JZ2.deriv.DAOD_FTAG1.e8514_s4162_r14622_p5981
mc23_13p6TeV.801167.Py8EG_A14NNPDF23LO_jj_JZ2.deriv.DAOD_FTAG1.e8514_s4159_r14799_p5981
mc23_13p6TeV.801168.Py8EG_A14NNPDF23LO_jj_JZ3.deriv.DAOD_FTAG1.e8514_s4162_r14622_p5981
mc23_13p6TeV.801168.Py8EG_A14NNPDF23LO_jj_JZ3.deriv.DAOD_FTAG1.e8514_s4159_r14799_p5981
mc23_13p6TeV.801169.Py8EG_A14NNPDF23LO_jj_JZ4.deriv.DAOD_FTAG1.e8514_s4162_r14622_p5981
mc23_13p6TeV.801169.Py8EG_A14NNPDF23LO_jj_JZ4.deriv.DAOD_FTAG1.e8514_s4159_r14799_p5981
mc23_13p6TeV.801170.Py8EG_A14NNPDF23LO_jj_JZ5.deriv.DAOD_FTAG1.e8514_s4162_r14622_p5981
mc23_13p6TeV.801170.Py8EG_A14NNPDF23LO_jj_JZ5.deriv.DAOD_FTAG1.e8514_s4159_r14799_p5981
mc23_13p6TeV.801171.Py8EG_A14NNPDF23LO_jj_JZ6.deriv.DAOD_FTAG1.e8514_s4162_r14622_p5981
mc23_13p6TeV.801171.Py8EG_A14NNPDF23LO_jj_JZ6.deriv.DAOD_FTAG1.e8514_s4159_r14799_p5981
mc23_13p6TeV.801172.Py8EG_A14NNPDF23LO_jj_JZ7.deriv.DAOD_FTAG1.e8514_s4162_r14622_p5981
mc23_13p6TeV.801172.Py8EG_A14NNPDF23LO_jj_JZ7.deriv.DAOD_FTAG1.e8514_s4159_r14799_p5981
mc23_13p6TeV.801173.Py8EG_A14NNPDF23LO_jj_JZ8.deriv.DAOD_FTAG1.e8514_s4162_r14622_p5981
mc23_13p6TeV.801173.Py8EG_A14NNPDF23LO_jj_JZ8.deriv.DAOD_FTAG1.e8514_s4159_r14799_p5981
mc23_13p6TeV.801174.Py8EG_A14NNPDF23LO_jj_JZ9incl.deriv.DAOD_FTAG1.e8514_s4162_r14622_p5981
mc23_13p6TeV.801174.Py8EG_A14NNPDF23LO_jj_JZ9incl.deriv.DAOD_FTAG1.e8514_s4159_r14799_p5981


#mc20
mc20_13TeV.364700.Pythia8EvtGen_A14NNPDF23LO_jetjet_JZ0WithSW.deriv.DAOD_FTAG1.e7142_s3681_r13167_p5981
mc20_13TeV.364700.Pythia8EvtGen_A14NNPDF23LO_jetjet_JZ0WithSW.deriv.DAOD_FTAG1.e7142_s3681_r13144_p5981
mc20_13TeV.364700.Pythia8EvtGen_A14NNPDF23LO_jetjet_JZ0WithSW.deriv.DAOD_FTAG1.e7142_s3681_r13145_p5981
mc20_13TeV.364701.Pythia8EvtGen_A14NNPDF23LO_jetjet_JZ1WithSW.deriv.DAOD_FTAG1.e7142_s3681_r13167_p5981
mc20_13TeV.364701.Pythia8EvtGen_A14NNPDF23LO_jetjet_JZ1WithSW.deriv.DAOD_FTAG1.e7142_s3681_r13144_p5981
mc20_13TeV.364701.Pythia8EvtGen_A14NNPDF23LO_jetjet_JZ1WithSW.deriv.DAOD_FTAG1.e7142_s3681_r13145_p5981
mc20_13TeV.364702.Pythia8EvtGen_A14NNPDF23LO_jetjet_JZ2WithSW.deriv.DAOD_FTAG1.e7142_s3681_r13167_p5981
mc20_13TeV.364702.Pythia8EvtGen_A14NNPDF23LO_jetjet_JZ2WithSW.deriv.DAOD_FTAG1.e7142_s3681_r13144_p5981
mc20_13TeV.364702.Pythia8EvtGen_A14NNPDF23LO_jetjet_JZ2WithSW.deriv.DAOD_FTAG1.e7142_s3681_r13145_p5981
mc20_13TeV.364703.Pythia8EvtGen_A14NNPDF23LO_jetjet_JZ3WithSW.deriv.DAOD_FTAG1.e7142_s3681_r13167_p5981
mc20_13TeV.364703.Pythia8EvtGen_A14NNPDF23LO_jetjet_JZ3WithSW.deriv.DAOD_FTAG1.e7142_s3681_r13144_p5981
mc20_13TeV.364703.Pythia8EvtGen_A14NNPDF23LO_jetjet_JZ3WithSW.deriv.DAOD_FTAG1.e7142_s3681_r13145_p5981
mc20_13TeV.364704.Pythia8EvtGen_A14NNPDF23LO_jetjet_JZ4WithSW.deriv.DAOD_FTAG1.e7142_s3681_r13167_p5981
mc20_13TeV.364704.Pythia8EvtGen_A14NNPDF23LO_jetjet_JZ4WithSW.deriv.DAOD_FTAG1.e7142_s3681_r13144_p5981
mc20_13TeV.364704.Pythia8EvtGen_A14NNPDF23LO_jetjet_JZ4WithSW.deriv.DAOD_FTAG1.e7142_s3681_r13145_p5981
mc20_13TeV.364705.Pythia8EvtGen_A14NNPDF23LO_jetjet_JZ5WithSW.deriv.DAOD_FTAG1.e7142_s3681_r13167_p5981
mc20_13TeV.364705.Pythia8EvtGen_A14NNPDF23LO_jetjet_JZ5WithSW.deriv.DAOD_FTAG1.e7142_s3681_r13144_p5981
mc20_13TeV.364705.Pythia8EvtGen_A14NNPDF23LO_jetjet_JZ5WithSW.deriv.DAOD_FTAG1.e7142_s3681_r13145_p5981
mc20_13TeV.364706.Pythia8EvtGen_A14NNPDF23LO_jetjet_JZ6WithSW.deriv.DAOD_FTAG1.e7142_s3681_r13167_p5981
mc20_13TeV.364706.Pythia8EvtGen_A14NNPDF23LO_jetjet_JZ6WithSW.deriv.DAOD_FTAG1.e7142_s3681_r13144_p5981
mc20_13TeV.364706.Pythia8EvtGen_A14NNPDF23LO_jetjet_JZ6WithSW.deriv.DAOD_FTAG1.e7142_s3681_r13145_p5981
mc20_13TeV.364707.Pythia8EvtGen_A14NNPDF23LO_jetjet_JZ7WithSW.deriv.DAOD_FTAG1.e7142_s3681_r13167_p5981
mc20_13TeV.364707.Pythia8EvtGen_A14NNPDF23LO_jetjet_JZ7WithSW.deriv.DAOD_FTAG1.e7142_s3681_r13144_p5981
mc20_13TeV.364707.Pythia8EvtGen_A14NNPDF23LO_jetjet_JZ7WithSW.deriv.DAOD_FTAG1.e7142_s3681_r13145_p5981
mc20_13TeV.364708.Pythia8EvtGen_A14NNPDF23LO_jetjet_JZ8WithSW.deriv.DAOD_FTAG1.e7142_s3681_r13167_p5981
mc20_13TeV.364708.Pythia8EvtGen_A14NNPDF23LO_jetjet_JZ8WithSW.deriv.DAOD_FTAG1.e7142_s3681_r13144_p5981
mc20_13TeV.364708.Pythia8EvtGen_A14NNPDF23LO_jetjet_JZ8WithSW.deriv.DAOD_FTAG1.e7142_s3681_r13145_p5981
mc20_13TeV.364709.Pythia8EvtGen_A14NNPDF23LO_jetjet_JZ9WithSW.deriv.DAOD_FTAG1.e7142_s3681_r13167_p5981
mc20_13TeV.364709.Pythia8EvtGen_A14NNPDF23LO_jetjet_JZ9WithSW.deriv.DAOD_FTAG1.e7142_s3681_r13144_p5981
mc20_13TeV.364709.Pythia8EvtGen_A14NNPDF23LO_jetjet_JZ9WithSW.deriv.DAOD_FTAG1.e7142_s3681_r13145_p5981
mc20_13TeV.364710.Pythia8EvtGen_A14NNPDF23LO_jetjet_JZ10WithSW.deriv.DAOD_FTAG1.e7142_s3681_r13167_p5981
mc20_13TeV.364710.Pythia8EvtGen_A14NNPDF23LO_jetjet_JZ10WithSW.deriv.DAOD_FTAG1.e7142_s3681_r13144_p5981
mc20_13TeV.364710.Pythia8EvtGen_A14NNPDF23LO_jetjet_JZ10WithSW.deriv.DAOD_FTAG1.e7142_s3681_r13145_p5981
mc20_13TeV.364711.Pythia8EvtGen_A14NNPDF23LO_jetjet_JZ11WithSW.deriv.DAOD_FTAG1.e7142_s3681_r13167_p5981
mc20_13TeV.364711.Pythia8EvtGen_A14NNPDF23LO_jetjet_JZ11WithSW.deriv.DAOD_FTAG1.e7142_s3681_r13144_p5981
mc20_13TeV.364711.Pythia8EvtGen_A14NNPDF23LO_jetjet_JZ11WithSW.deriv.DAOD_FTAG1.e7142_s3681_r13145_p5981
